…
Ya tenemos los datos que necesitamos pero parece que la tabla estuviera “acostada”. Para que se ponga de pie o estire a lo largo vamos a usar la función pivot_longer

tabla_3 <- tabla_3 |> 
  pivot_longer(cols = -c(ANO4,TRIMESTRE), #Las columnas que queremos estirar en este caso son todas excepto el año y el trimestre
               names_to = "Tasas", # El nombre que le queremos poner
               values_to = "Valor") # el valor en cuestión que hay que repartir

tabla_3

## # A tibble: 35 × 4
##     ANO4 TRIMESTRE Tasas                       Valor
##    <dbl>     <dbl> <chr>                       <dbl>
##  1  2023         1 Actividad                  0.483 
##  2  2023         1 Empleo                     0.450 
##  3  2023         1 Desocupación               0.0687
##  4  2023         1 Ocupación demandante       0.148 
##  5  2023         1 Subocupación               0.0941
##  6  2023         1 Subocupación demandante    0.0635
##  7  2023         1 Subocupación no demandante 0.0306
##  8  2022         1 Actividad                  0.465 
##  9  2022         1 Empleo                     0.433 
## 10  2022         1 Desocupación               0.0697
## # ℹ 25 more rows

Vamos multiplicar por 100 el valor de la tasa ya que por lo general se expresa de esta forma, el cual redondeamos a un decimal.

tabla_3 <- tabla_3 |> 
  mutate(Valor = round(Valor*100,1))

tabla_3

## # A tibble: 35 × 4
##     ANO4 TRIMESTRE Tasas                      Valor
##    <dbl>     <dbl> <chr>                      <dbl>
##  1  2023         1 Actividad                   48.3
##  2  2023         1 Empleo                      45  
##  3  2023         1 Desocupación                 6.9
##  4  2023         1 Ocupación demandante        14.8
##  5  2023         1 Subocupación                 9.4
##  6  2023         1 Subocupación demandante      6.3
##  7  2023         1 Subocupación no demandante   3.1
##  8  2022         1 Actividad                   46.5
##  9  2022         1 Empleo                      43.3
## 10  2022         1 Desocupación                 7  
## # ℹ 25 more rows
…
